%YAML 1.1
%TAG !u! tag:unity3d.com,2011:
--- !u!114 &11400000
MonoBehaviour:
  m_ObjectHideFlags: 0
  m_CorrespondingSourceObject: {fileID: 0}
  m_PrefabInstance: {fileID: 0}
  m_PrefabAsset: {fileID: 0}
  m_GameObject: {fileID: 0}
  m_Enabled: 1
  m_EditorHideFlags: 0
  m_Script: {fileID: 11500000, guid: 2db77926393c76640862290d586d0d6e, type: 3}
  m_Name: SO_Actions
  m_EditorClassIdentifier: 
  m_Names:
  - Execute
  - Vanish
  - Dash
  - Inspire
  - Intimidate
  - Frenzy
  - Manipulation
  - Mind Flay
  - Crush
  - Judgement
  - Lifesteal
  - Vampire
  m_SoulCosts: 020000000100000002000000010000000200000004000000030000000400000003000000080000000400000004000000
  m_Descriptions:
  - KILL ANY UNIT ON OPPOSITE SIDE
  - CONCEAL TIL NEXT TURN
  - MOVE UP TO 2 TILES
  - PLUS 1 / PLUS 0 TO A UNIT
  - TARGET UNIT CANNOT ACT ON THEIR NEXT TURN
  - PLUS 4 AND MINUS 3 TO WILDFREY
  - CAUSE ENEMY UNIT TO ATTACK ANOTHER
  - ENEMY DIVINE DISCARDS 3 CARDS RANDOMLY
  - DEAL 3 DAMAGE TO ANY SOUL AND DIVINE.
  - DEAL 1 DAMAGE FOR EVERY SLAIN UNIT TO ALL SOULS.
  - ATTACKS HEALS THE UNIT BEFORE HEALING THE ALTAR.
  - BLOOD PACT:-2 TO DIVINE HP WHEN COMES INTO PLAY. IF THERE'S 2 VAMPIRES OR MORE,
    CRIMSON VAMPIRES GAIN +2/+2
