%YAML 1.1
%TAG !u! tag:unity3d.com,2011:
--- !u!114 &11400000
MonoBehaviour:
  m_ObjectHideFlags: 0
  m_CorrespondingSourceObject: {fileID: 0}
  m_PrefabInstance: {fileID: 0}
  m_PrefabAsset: {fileID: 0}
  m_GameObject: {fileID: 0}
  m_Enabled: 1
  m_EditorHideFlags: 0
  m_Script: {fileID: 11500000, guid: cdd87a88a3c371242bf21b113ff51d6f, type: 3}
  m_Name: CARD_16
  m_EditorClassIdentifier: 
  m_Type: 0
  m_CardName: 
  m_Rarity: 0
  m_Race: 0
  m_SummonCost: 0
  m_Ori: 0
  m_Attack: 0
  m_Life: 0
  m_AbilityType: 0
  m_AbilityStr: 
  m_AbilityTargetType: 0
  m_AbilityTargetTeam: 0
  m_AbilityDmg: 0
  m_Dialog: 
  m_Background: 
  m_Animation: 
  m_Artist: 
